Areas of Knowledge – Hubert Baechli: ICMB portfolio
…
Pop

# A tibble: 60 × 11
      ID ID_Group ID_Topic Agents_Knowledge_Max Agents_Knowledge_Profile
   <int> <chr>    <chr>                   <dbl>                    <dbl>
 1     1 Zürich   M1                       0.01                    0.333
 2     2 Zürich   M1                       0.01                    0.333
 3     3 Zürich   M1                       0.01                    0.333
 4     4 Zürich   M1                       0.01                    0.333
 5     5 Zürich   M1                       0.01                    0.333
 6     6 Zürich   M1                       0.01                    0.333
 7     7 Zürich   M1                       0.01                    0.333
 8     8 Zürich   M1                       0.01                    0.333
 9     9 Zürich   M1                       0.01                    0.333
10    10 Zürich   M1                       0.01                    0.333
# ℹ 50 more rows
# ℹ 6 more variables: Agents_p_MeetDay <dbl>, Agents_p_WorkDay <dbl>,
#   Learnrate_Others <dbl>, Learnrate_Topic <dbl>, Knowledge_M1 <dbl>,
#   Knowledge_M2 <dbl>

Code
res <- sim_Days(Pop = Pop,
                nD = 20)

res$Pop

# A tibble: 60 × 19
      ID ID_Group ID_Topic Agents_Knowledge_Max Agents_Knowledge_Profile
   <int> <chr>    <chr>                   <dbl>                    <dbl>
 1     1 Zürich   M1                      0.695                    0.610
 2     2 Zürich   M1                      0.701                    0.601
 3     3 Zürich   M1                      0.703                    0.614
 4     4 Zürich   M1                      0.709                    0.560
 5     5 Zürich   M1                      0.693                    0.577
 6     6 Zürich   M1                      0.707                    0.586
 7     7 Zürich   M1                      0.696                    0.579
 8     8 Zürich   M1                      0.698                    0.619
 9     9 Zürich   M1                      0.701                    0.614
10    10 Zürich   M1                      0.699                    0.574
# ℹ 50 more rows
# ℹ 14 more variables: Agents_p_MeetDay <dbl>, Agents_p_WorkDay <dbl>,
#   Learnrate_Others <dbl>, Learnrate_Topic <dbl>, Knowledge_M1 <dbl>,
#   Knowledge_M2 <dbl>, Counter_Day <dbl>, Counter_Number_meet <dbl>,
#   Counter_Time_learnd <dbl>, Counter_Time_meet <dbl>,
#   Counter_Time_total <dbl>, Resources_Time_learnd <dbl>,
#   Resources_Time_meet <dbl>, Resources_Time_total <dbl>
…
Pop

# A tibble: 90 × 12
      ID ID_Group ID_Topic Agents_Knowledge_Max Agents_Knowledge_Profile
   <int> <chr>    <chr>                   <dbl>                    <dbl>
 1     1 Zürich   M1                       0.01                    0.143
 2     2 Zürich   M1                       0.01                    0.143
 3     3 Zürich   M1                       0.01                    0.143
 4     4 Zürich   M1                       0.01                    0.143
 5     5 Zürich   M1                       0.01                    0.143
 6     6 Zürich   M1                       0.01                    0.143
 7     7 Zürich   M1                       0.01                    0.143
 8     8 Zürich   M1                       0.01                    0.143
 9     9 Zürich   M1                       0.01                    0.143
10    10 Zürich   M1                       0.01                    0.143
# ℹ 80 more rows
# ℹ 7 more variables: Agents_p_MeetDay <dbl>, Agents_p_WorkDay <dbl>,
#   Learnrate_Others <dbl>, Learnrate_Topic <dbl>, Knowledge_M1 <dbl>,
#   Knowledge_M2 <dbl>, Knowledge_M3 <dbl>

Code
res1 <- sim_Days(Pop = Pop,
                nD = 20)

res1$Pop

# A tibble: 90 × 20
      ID ID_Group ID_Topic Agents_Knowledge_Max Agents_Knowledge_Profile
   <int> <chr>    <chr>                   <dbl>                    <dbl>
 1     1 Zürich   M1                      0.773                    0.382
 2     2 Zürich   M1                      0.789                    0.396
 3     3 Zürich   M1                      0.794                    0.346
 4     4 Zürich   M1                      0.792                    0.316
 5     5 Zürich   M1                      0.776                    0.361
 6     6 Zürich   M1                      0.794                    0.449
 7     7 Zürich   M1                      0.792                    0.426
 8     8 Zürich   M1                      0.778                    0.320
 9     9 Zürich   M1                      0.787                    0.348
10    10 Zürich   M1                      0.788                    0.408
# ℹ 80 more rows
# ℹ 15 more variables: Agents_p_MeetDay <dbl>, Agents_p_WorkDay <dbl>,
#   Learnrate_Others <dbl>, Learnrate_Topic <dbl>, Knowledge_M1 <dbl>,
#   Knowledge_M2 <dbl>, Knowledge_M3 <dbl>, Counter_Day <dbl>,
#   Counter_Number_meet <dbl>, Counter_Time_learnd <dbl>,
#   Counter_Time_meet <dbl>, Counter_Time_total <dbl>,
#   Resources_Time_learnd <dbl>, Resources_Time_meet <dbl>, …
…
