in a Day Structer – Hubert Baechli: ICMB portfolio
…
Code
nA <- 50                          # number of Agents
ID <- seq_len(nA)                 # ID of the Agents
K <- (seq_len(nA)-1)/50           # Knowledge

nM <- 160                         # number of meetings(mean)
pM <- 0.80
nD <- nM / 8 / pM

Pop <- tibble( ID = ID )
Pop <- set_Knowledge( Pop = Pop, K = K )
Pop

# A tibble: 50 × 2
      ID Knowledge
   <int>     <dbl>
 1     1      0   
 2     2      0.02
 3     3      0.04
 4     4      0.06
 5     5      0.08
 6     6      0.1 
 7     7      0.12
 8     8      0.14
 9     9      0.16
10    10      0.18
# ℹ 40 more rows

Code
res <- sim_Days(Pop = Pop,
                nD = nD,
                pM = pM)

mean(res$Pop[["StudyTime"]])

[1] 160

Code
res$Pop

# A tibble: 50 × 4
      ID Knowledge LearnRate StudyTime
   <int>     <dbl>     <dbl>     <dbl>
 1     1     0.869     0.435       167
 2     2     0.864     0.432       156
 3     3     0.868     0.434       156
 4     4     0.871     0.435       172
 5     5     0.862     0.431       148
 6     6     0.864     0.432       152
 7     7     0.864     0.432       153
 8     8     0.867     0.434       162
 9     9     0.868     0.434       167
10    10     0.870     0.435       161
# ℹ 40 more rows
…
… Special Cases

Only one Agent with Knowledge (0.8)

Code
K <- 0           # Knowledge

Pop <- tibble( ID = ID )
Pop <- set_Knowledge( Pop = Pop, K = K )
Pop[ID == 1, "Knowledge"] <- 0.8
Pop

# A tibble: 50 × 2
      ID Knowledge
   <int>     <dbl>
 1     1       0.8
 2     2       0  
 3     3       0  
 4     4       0  
 5     5       0  
 6     6       0  
 7     7       0  
 8     8       0  
 9     9       0  
10    10       0  
# ℹ 40 more rows

Code
res <- sim_Days(Pop = Pop,
                nD = nD,
                pM = pM)

res$Pop

# A tibble: 50 × 4
      ID Knowledge LearnRate StudyTime
   <int>     <dbl>     <dbl>     <dbl>
 1     1     0.857     0.429       164
 2     2     0.791     0.396       160
 3     3     0.790     0.395       159
 4     4     0.796     0.398       166
 5     5     0.788     0.394       155
 6     6     0.792     0.396       164
 7     7     0.794     0.397       162
 8     8     0.796     0.398       166
 9     9     0.796     0.398       162
10    10     0.797     0.398       161
# ℹ 40 more rows
…
