Random Meetings – Hubert Baechli: ICMB portfolio
…
Output

A List with the new Population and a Timeline over the number of itterations

Code
nA = 50                          # number of Agents
ID = seq_len(nA)                 # ID of the Agents
K = (seq_len(nA)-1)/50           # Knowledge

Pop <- tibble( ID = ID )
Pop <- set_Knowledge( Pop = Pop, K = K )
Pop

# A tibble: 50 × 2
      ID Knowledge
   <int>     <dbl>
 1     1      0   
 2     2      0.02
 3     3      0.04
 4     4      0.06
 5     5      0.08
 6     6      0.1 
 7     7      0.12
 8     8      0.14
 9     9      0.16
10    10      0.18
# ℹ 40 more rows

Code
res <- sim_meeting(Pop = Pop,
                   ST = 1,
                   STn = 2000)

res$Pop

# A tibble: 50 × 4
      ID Knowledge LearnRate StudyTime
   <int>     <dbl>     <dbl>     <dbl>
 1     1     0.815     0.407       188
 2     2     0.787     0.393       148
 3     3     0.804     0.402       176
 4     4     0.800     0.400       164
 5     5     0.772     0.386       132
 6     6     0.802     0.401       164
 7     7     0.792     0.396       156
 8     8     0.807     0.403       172
 9     9     0.767     0.384       128
10    10     0.780     0.390       142
# ℹ 40 more rows
…
Code
K = 0           # Knowledge

Pop <- tibble( ID = ID )
Pop <- set_Knowledge( Pop = Pop, K = K )
Pop[ID == 1, "Knowledge"] <- 0.8
Pop

# A tibble: 50 × 2
      ID Knowledge
   <int>     <dbl>
 1     1       0.8
 2     2       0  
 3     3       0  
 4     4       0  
 5     5       0  
 6     6       0  
 7     7       0  
 8     8       0  
 9     9       0  
10    10       0  
# ℹ 40 more rows

Code
res <- sim_meeting(Pop = Pop,
                   ST = 1,
                   STn = 2000)

res$Pop

# A tibble: 50 × 4
      ID Knowledge LearnRate StudyTime
   <int>     <dbl>     <dbl>     <dbl>
 1     1     0.821     0.411       176
 2     2     0.621     0.311       148
 3     3     0.614     0.307       150
 4     4     0.611     0.306       150
 5     5     0.623     0.312       170
 6     6     0.628     0.314       172
 7     7     0.612     0.306       148
 8     8     0.643     0.321       174
 9     9     0.639     0.320       158
10    10     0.647     0.324       196
# ℹ 40 more rows
…
