Simple Learning kurve – Hubert Baechli: ICMB portfolio
…
Output

A List with the new Population and a Timeline over the number of itterations

Code
nA = 50                          # number of Agents
ID = seq_len(nA)                 # ID of the Agents
K = (seq_len(nA)-1)/50           # Knowledge

Pop <- tibble( ID = ID )
Pop <- set_Knowledge( Pop = Pop, K = K )
Pop

# A tibble: 50 × 2
      ID Knowledge
   <int>     <dbl>
 1     1      0   
 2     2      0.02
 3     3      0.04
 4     4      0.06
 5     5      0.08
 6     6      0.1 
 7     7      0.12
 8     8      0.14
 9     9      0.16
10    10      0.18
# ℹ 40 more rows

Code
res <- sim_learn(Pop = Pop,
                 LR = 0.1,
                 ST = 1,
                 STn = 500)
res$Pop

# A tibble: 50 × 4
      ID Knowledge LearnRate StudyTime
   <int>     <dbl>     <dbl>     <dbl>
 1     1     0.463       0.1       500
 2     2     0.463       0.1       500
 3     3     0.463       0.1       500
 4     4     0.463       0.1       500
 5     5     0.463       0.1       500
 6     6     0.463       0.1       500
 7     7     0.463       0.1       500
 8     8     0.463       0.1       500
 9     9     0.463       0.1       500
10    10     0.464       0.1       500
# ℹ 40 more rows
…
