Areas of Knowledge – Hubert Baechli: ICMB portfolio
…
Output

A List with the new Population and a Timeline over the number of Days

Code
nA <- 50                          # number of Agents

Pop <- gen_Pop( nA = nA, 
                K = list(0.0, 0.0, 0.0),
                Typ = list("M1", "M2", "M3"), 
                pWD = 0.8,
                pMD = 0.8)
Pop

# A tibble: 50 × 10
      ID A_Topic A_Knowledge A_Profile A_LearnRate A_pWorkDay A_pMeetDay
   <int> <chr>         <dbl>     <dbl>       <dbl>      <dbl>      <dbl>
 1     1 M2                0         1       0.001        0.8        0.8
 2     2 M3                0         1       0.001        0.8        0.8
 3     3 M3                0         1       0.001        0.8        0.8
 4     4 M3                0         1       0.001        0.8        0.8
 5     5 M1                0         1       0.001        0.8        0.8
 6     6 M3                0         1       0.001        0.8        0.8
 7     7 M3                0         1       0.001        0.8        0.8
 8     8 M2                0         1       0.001        0.8        0.8
 9     9 M2                0         1       0.001        0.8        0.8
10    10 M2                0         1       0.001        0.8        0.8
# ℹ 40 more rows
# ℹ 3 more variables: Knowledge_M1 <dbl>, Knowledge_M2 <dbl>,
#   Knowledge_M3 <dbl>

Code
res <- sim_Days(Pop = Pop,
                nD = 20)

res$Pop

# A tibble: 50 × 15
      ID A_Topic A_Knowledge A_Profile A_LearnRate A_pWorkDay A_pMeetDay
   <int> <chr>         <dbl>     <dbl>       <dbl>      <dbl>      <dbl>
 1     1 M3             0.82     0.787       0.643        0.8        0.8
 2     2 M1             0.82     0.792       0.639        0.8        0.8
 3     3 M1             0.82     0.742       0.626        0.8        0.8
 4     4 M2             0.82     0.711       0.615        0.8        0.8
 5     5 M1             0.82     0.742       0.627        0.8        0.8
 6     6 M1             0.82     0.760       0.635        0.8        0.8
 7     7 M3             0.82     0.804       0.646        0.8        0.8
 8     8 M2             0.82     0.753       0.631        0.8        0.8
 9     9 M2             0.82     0.771       0.634        0.8        0.8
10    10 M1             0.83     0.732       0.625        0.8        0.8
# ℹ 40 more rows
# ℹ 8 more variables: Knowledge_M1 <dbl>, Knowledge_M2 <dbl>,
#   Knowledge_M3 <dbl>, r_time_meet <dbl>, r_time_learn <dbl>,
#   c_time_meet <dbl>, c_time_learn <dbl>, c_n_meet <dbl>
…
Code
Pop <- gen_Pop( nA = nA, 
                K = list(0.0, 0.0, 0.0),
                Typ = list("M1", "M2", "M3"), 
                pWD = 0.8,
                pMD = 0.8)
Pop[Pop$ID == 1, "Knowledge_M1"] <- 0.8
#Pop[Pop$ID == 2, "Knowledge_M2"] <- 0.8
#Pop[Pop$ID == 3, "Knowledge_M3"] <- 0.8
Pop <- update_Knowledge(Pop = Pop)
Pop <- update_Topic(Pop = Pop)
Pop

# A tibble: 50 × 10
      ID A_Topic A_Knowledge A_Profile A_LearnRate A_pWorkDay A_pMeetDay
   <int> <chr>         <dbl>     <dbl>       <dbl>      <dbl>      <dbl>
 1     1 M1              0.8     0.143       0.4          0.8        0.8
 2     2 M2              0       1           0.001        0.8        0.8
 3     3 M3              0       1           0.001        0.8        0.8
 4     4 M3              0       1           0.001        0.8        0.8
 5     5 M2              0       1           0.001        0.8        0.8
 6     6 M1              0       1           0.001        0.8        0.8
 7     7 M2              0       1           0.001        0.8        0.8
 8     8 M1              0       1           0.001        0.8        0.8
 9     9 M2              0       1           0.001        0.8        0.8
10    10 M1              0       1           0.001        0.8        0.8
# ℹ 40 more rows
# ℹ 3 more variables: Knowledge_M1 <dbl>, Knowledge_M2 <dbl>,
#   Knowledge_M3 <dbl>

Code
res <- sim_Days(Pop = Pop,
                nD = 20)

res$Pop

# A tibble: 50 × 15
      ID A_Topic A_Knowledge A_Profile A_LearnRate A_pWorkDay A_pMeetDay
   <int> <chr>         <dbl>     <dbl>       <dbl>      <dbl>      <dbl>
 1     1 M1             0.95     0.863       0.773        0.8        0.8
 2     2 M1             0.93     0.873       0.760        0.8        0.8
 3     3 M3             0.93     0.847       0.752        0.8        0.8
 4     4 M1             0.93     0.859       0.756        0.8        0.8
 5     5 M3             0.93     0.799       0.730        0.8        0.8
 6     6 M3             0.93     0.829       0.745        0.8        0.8
 7     7 M1             0.93     0.876       0.760        0.8        0.8
 8     8 M2             0.92     0.895       0.767        0.8        0.8
 9     9 M1             0.93     0.855       0.756        0.8        0.8
10    10 M1             0.93     0.854       0.753        0.8        0.8
# ℹ 40 more rows
# ℹ 8 more variables: Knowledge_M1 <dbl>, Knowledge_M2 <dbl>,
#   Knowledge_M3 <dbl>, r_time_meet <dbl>, r_time_learn <dbl>,
#   c_time_meet <dbl>, c_time_learn <dbl>, c_n_meet <dbl>
…
Code
Pop <- gen_Pop( nA = nA, 
                K = list(0.02, 0.01, 0.0),
                Typ = list("M1", "M2", "M3"), 
                pWD = 0.8,
                pMD = 0.8)
Pop[Pop$ID == 1, "Knowledge_M1"] <- 0.8
#Pop[Pop$ID == 2, "Knowledge_M2"] <- 0.8
#Pop[Pop$ID == 3, "Knowledge_M3"] <- 0.8
Pop <- update_Knowledge(Pop = Pop)
Pop <- update_Topic(Pop = Pop)
Pop

# A tibble: 50 × 10
      ID A_Topic A_Knowledge A_Profile A_LearnRate A_pWorkDay A_pMeetDay
   <int> <chr>         <dbl>     <dbl>       <dbl>      <dbl>      <dbl>
 1     1 M1             0.8      0.150      0.402         0.8        0.8
 2     2 M1             0.02     0.429      0.0125        0.8        0.8
 3     3 M1             0.02     0.429      0.0125        0.8        0.8
 4     4 M1             0.02     0.429      0.0125        0.8        0.8
 5     5 M1             0.02     0.429      0.0125        0.8        0.8
 6     6 M1             0.02     0.429      0.0125        0.8        0.8
 7     7 M1             0.02     0.429      0.0125        0.8        0.8
 8     8 M1             0.02     0.429      0.0125        0.8        0.8
 9     9 M1             0.02     0.429      0.0125        0.8        0.8
10    10 M1             0.02     0.429      0.0125        0.8        0.8
# ℹ 40 more rows
# ℹ 3 more variables: Knowledge_M1 <dbl>, Knowledge_M2 <dbl>,
#   Knowledge_M3 <dbl>

Code
res <- sim_Days(Pop = Pop,
                nD = 20)

res$Pop

# A tibble: 50 × 15
      ID A_Topic A_Knowledge A_Profile A_LearnRate A_pWorkDay A_pMeetDay
   <int> <chr>         <dbl>     <dbl>       <dbl>      <dbl>      <dbl>
 1     1 M1             0.86     0.149       0.433        0.8        0.8
 2     2 M1             0.76     0.150       0.385        0.8        0.8
 3     3 M1             0.76     0.150       0.384        0.8        0.8
 4     4 M1             0.76     0.150       0.384        0.8        0.8
 5     5 M1             0.77     0.150       0.388        0.8        0.8
 6     6 M1             0.76     0.150       0.383        0.8        0.8
 7     7 M1             0.76     0.150       0.382        0.8        0.8
 8     8 M1             0.76     0.150       0.385        0.8        0.8
 9     9 M1             0.76     0.150       0.384        0.8        0.8
10    10 M1             0.76     0.150       0.381        0.8        0.8
# ℹ 40 more rows
# ℹ 8 more variables: Knowledge_M1 <dbl>, Knowledge_M2 <dbl>,
#   Knowledge_M3 <dbl>, r_time_meet <dbl>, r_time_learn <dbl>,
#   c_time_meet <dbl>, c_time_learn <dbl>, c_n_meet <dbl>
…
Code
Pop <- gen_Pop( nA = nA, 
                K = list(0.01, 0.02, 0.0),
                Typ = list("M1", "M2", "M3"), 
                pWD = 0.8,
                pMD = 0.8)
Pop[Pop$ID == 1, "Knowledge_M1"] <- 0.8
#Pop[Pop$ID == 2, "Knowledge_M2"] <- 0.8
#Pop[Pop$ID == 3, "Knowledge_M3"] <- 0.8
Pop <- update_Knowledge(Pop = Pop)
Pop <- update_Topic(Pop = Pop)
Pop

# A tibble: 50 × 10
      ID A_Topic A_Knowledge A_Profile A_LearnRate A_pWorkDay A_pMeetDay
   <int> <chr>         <dbl>     <dbl>       <dbl>      <dbl>      <dbl>
 1     1 M1             0.8      0.157      0.405         0.8        0.8
 2     2 M2             0.02     0.429      0.0125        0.8        0.8
 3     3 M2             0.02     0.429      0.0125        0.8        0.8
 4     4 M2             0.02     0.429      0.0125        0.8        0.8
 5     5 M2             0.02     0.429      0.0125        0.8        0.8
 6     6 M2             0.02     0.429      0.0125        0.8        0.8
 7     7 M2             0.02     0.429      0.0125        0.8        0.8
 8     8 M2             0.02     0.429      0.0125        0.8        0.8
 9     9 M2             0.02     0.429      0.0125        0.8        0.8
10    10 M2             0.02     0.429      0.0125        0.8        0.8
# ℹ 40 more rows
# ℹ 3 more variables: Knowledge_M1 <dbl>, Knowledge_M2 <dbl>,
#   Knowledge_M3 <dbl>

Code
res <- sim_Days(Pop = Pop,
                nD = 20)

res$Pop

# A tibble: 50 × 15
      ID A_Topic A_Knowledge A_Profile A_LearnRate A_pWorkDay A_pMeetDay
   <int> <chr>         <dbl>     <dbl>       <dbl>      <dbl>      <dbl>
 1     1 M1             0.92     0.664       0.668        0.8        0.8
 2     2 M2             0.8      0.150       0.403        0.8        0.8
 3     3 M2             0.82     0.220       0.436        0.8        0.8
 4     4 M2             0.82     0.323       0.473        0.8        0.8
 5     5 M2             0.83     0.262       0.459        0.8        0.8
 6     6 M2             0.83     0.447       0.525        0.8        0.8
 7     7 M2             0.84     0.340       0.491        0.8        0.8
 8     8 M2             0.85     0.416       0.526        0.8        0.8
 9     9 M2             0.83     0.366       0.494        0.8        0.8
10    10 M2             0.84     0.329       0.491        0.8        0.8
# ℹ 40 more rows
# ℹ 8 more variables: Knowledge_M1 <dbl>, Knowledge_M2 <dbl>,
#   Knowledge_M3 <dbl>, r_time_meet <dbl>, r_time_learn <dbl>,
#   c_time_meet <dbl>, c_time_learn <dbl>, c_n_meet <dbl>
…
Code
Pop <- gen_Pop( nA = nA, 
                K = list(0.0, 0.0, 0.01),
                Typ = list("M1", "M2", "M3"), 
                pWD = 0.8,
                pMD = 0.8)
Pop[Pop$ID == 1, "Knowledge_M1"] <- 0.8
#Pop[Pop$ID == 2, "Knowledge_M2"] <- 0.8
#Pop[Pop$ID == 3, "Knowledge_M3"] <- 0.8
Pop <- update_Knowledge(Pop = Pop)
Pop <- update_Topic(Pop = Pop)
Pop

# A tibble: 50 × 10
      ID A_Topic A_Knowledge A_Profile A_LearnRate A_pWorkDay A_pMeetDay
   <int> <chr>         <dbl>     <dbl>       <dbl>      <dbl>      <dbl>
 1     1 M1             0.8      0.150       0.402        0.8        0.8
 2     2 M3             0.01     0.143       0.005        0.8        0.8
 3     3 M3             0.01     0.143       0.005        0.8        0.8
 4     4 M3             0.01     0.143       0.005        0.8        0.8
 5     5 M3             0.01     0.143       0.005        0.8        0.8
 6     6 M3             0.01     0.143       0.005        0.8        0.8
 7     7 M3             0.01     0.143       0.005        0.8        0.8
 8     8 M3             0.01     0.143       0.005        0.8        0.8
 9     9 M3             0.01     0.143       0.005        0.8        0.8
10    10 M3             0.01     0.143       0.005        0.8        0.8
# ℹ 40 more rows
# ℹ 3 more variables: Knowledge_M1 <dbl>, Knowledge_M2 <dbl>,
#   Knowledge_M3 <dbl>

Code
res <- sim_Days(Pop = Pop,
                nD = 20)

res$Pop

# A tibble: 50 × 15
      ID A_Topic A_Knowledge A_Profile A_LearnRate A_pWorkDay A_pMeetDay
   <int> <chr>         <dbl>     <dbl>       <dbl>      <dbl>      <dbl>
 1     1 M1             0.92     0.659       0.665        0.8        0.8
 2     2 M3             0.82     0.255       0.452        0.8        0.8
 3     3 M3             0.81     0.227       0.436        0.8        0.8
 4     4 M3             0.82     0.282       0.459        0.8        0.8
 5     5 M3             0.79     0.328       0.461        0.8        0.8
 6     6 M3             0.82     0.290       0.464        0.8        0.8
 7     7 M3             0.83     0.423       0.519        0.8        0.8
 8     8 M3             0.85     0.352       0.500        0.8        0.8
 9     9 M3             0.81     0.199       0.427        0.8        0.8
10    10 M3             0.82     0.265       0.455        0.8        0.8
# ℹ 40 more rows
# ℹ 8 more variables: Knowledge_M1 <dbl>, Knowledge_M2 <dbl>,
#   Knowledge_M3 <dbl>, r_time_meet <dbl>, r_time_learn <dbl>,
#   c_time_meet <dbl>, c_time_learn <dbl>, c_n_meet <dbl>
…
Code
Pop <- gen_Pop( nA = nA, 
                K = list(0.0, 0.0, 0.01),
                Typ = list("M1", "M2", "M3"), 
                pWD = 0.8,
                pMD = 0.8)
#Pop[Pop$ID == 1, "Knowledge_M1"] <- 0.8
Pop[Pop$ID == 2, "Knowledge_M2"] <- 0.8
#Pop[Pop$ID == 3, "Knowledge_M3"] <- 0.8
Pop <- update_Knowledge(Pop = Pop)
Pop <- update_Topic(Pop = Pop)
Pop

# A tibble: 50 × 10
      ID A_Topic A_Knowledge A_Profile A_LearnRate A_pWorkDay A_pMeetDay
   <int> <chr>         <dbl>     <dbl>       <dbl>      <dbl>      <dbl>
 1     1 M3             0.01     0.143       0.005        0.8        0.8
 2     2 M2             0.8      0.150       0.402        0.8        0.8
 3     3 M3             0.01     0.143       0.005        0.8        0.8
 4     4 M3             0.01     0.143       0.005        0.8        0.8
 5     5 M3             0.01     0.143       0.005        0.8        0.8
 6     6 M3             0.01     0.143       0.005        0.8        0.8
 7     7 M3             0.01     0.143       0.005        0.8        0.8
 8     8 M3             0.01     0.143       0.005        0.8        0.8
 9     9 M3             0.01     0.143       0.005        0.8        0.8
10    10 M3             0.01     0.143       0.005        0.8        0.8
# ℹ 40 more rows
# ℹ 3 more variables: Knowledge_M1 <dbl>, Knowledge_M2 <dbl>,
#   Knowledge_M3 <dbl>

Code
res <- sim_Days(Pop = Pop,
                nD = 20)

res$Pop

# A tibble: 50 × 15
      ID A_Topic A_Knowledge A_Profile A_LearnRate A_pWorkDay A_pMeetDay
   <int> <chr>         <dbl>     <dbl>       <dbl>      <dbl>      <dbl>
 1     1 M3             0.81     0.214       0.430        0.8        0.8
 2     2 M2             0.92     0.660       0.665        0.8        0.8
 3     3 M3             0.83     0.306       0.472        0.8        0.8
 4     4 M3             0.83     0.336       0.487        0.8        0.8
 5     5 M3             0.84     0.356       0.500        0.8        0.8
 6     6 M3             0.81     0.235       0.437        0.8        0.8
 7     7 M3             0.83     0.381       0.504        0.8        0.8
 8     8 M3             0.82     0.310       0.468        0.8        0.8
 9     9 M3             0.81     0.351       0.479        0.8        0.8
10    10 M3             0.83     0.341       0.486        0.8        0.8
# ℹ 40 more rows
# ℹ 8 more variables: Knowledge_M1 <dbl>, Knowledge_M2 <dbl>,
#   Knowledge_M3 <dbl>, r_time_meet <dbl>, r_time_learn <dbl>,
#   c_time_meet <dbl>, c_time_learn <dbl>, c_n_meet <dbl>
…
