Grouped in Slots – Hubert Baechli: ICMB portfolio
…
A List with the new Population and a Timeline over the number of itterations

Code
nA <- 50                          # number of Agents
ID <- seq_len(nA)                 # ID of the Agents
K <- (seq_len(nA)-1)/50           # Knowledge

psize <- 0.5
STn <- 200 * psize

Pop <- tibble( ID = ID )
Pop <- set_Knowledge( Pop = Pop, K = K )
Pop

# A tibble: 50 × 2
      ID Knowledge
   <int>     <dbl>
 1     1      0   
 2     2      0.02
 3     3      0.04
 4     4      0.06
 5     5      0.08
 6     6      0.1 
 7     7      0.12
 8     8      0.14
 9     9      0.16
10    10      0.18
# ℹ 40 more rows

Code
res <- sim_Slot(Pop = Pop,
                psize = psize,
                ST = 1,
                STn = STn)

res$Pop

# A tibble: 50 × 4
      ID Knowledge LearnRate StudyTime
   <int>     <dbl>     <dbl>     <dbl>
 1     1     0.826     0.413       200
 2     2     0.823     0.412       200
 3     3     0.824     0.412       200
 4     4     0.825     0.412       200
 5     5     0.826     0.413       200
 6     6     0.825     0.413       200
 7     7     0.826     0.413       200
 8     8     0.821     0.411       200
 9     9     0.827     0.414       200
10    10     0.828     0.414       200
# ℹ 40 more rows
…
… Special Cases

Only one Agent with Knowledge (0.8)

Code
K = 0           # Knowledge

Pop <- tibble( ID = ID )
Pop <- set_Knowledge( Pop = Pop, K = K )
Pop[ID == 1, "Knowledge"] <- 0.8
Pop

# A tibble: 50 × 2
      ID Knowledge
   <int>     <dbl>
 1     1       0.8
 2     2       0  
 3     3       0  
 4     4       0  
 5     5       0  
 6     6       0  
 7     7       0  
 8     8       0  
 9     9       0  
10    10       0  
# ℹ 40 more rows

Code
res <- sim_Slot(Pop = Pop,
                psize = psize,
                ST = 1,
                STn = STn)

res$Pop

# A tibble: 50 × 4
      ID Knowledge LearnRate StudyTime
   <int>     <dbl>     <dbl>     <dbl>
 1     1     0.830     0.415       200
 2     2     0.707     0.353       200
 3     3     0.714     0.357       200
 4     4     0.713     0.357       200
 5     5     0.704     0.352       200
 6     6     0.706     0.353       200
 7     7     0.707     0.353       200
 8     8     0.709     0.354       200
 9     9     0.705     0.353       200
10    10     0.703     0.352       200
# ℹ 40 more rows
…
